Tecnología y Sociedad - Procesando datos de encuestas en R
…
Primeras preguntas

Dado el ajuste rápido de nuestros datos, queremos conocer más sobre el proceso de campo del formulario, por ejemplo: entre qué fechas tuvo lugar y cuántos respondentes tuvo por día?

Veamos qué podemos decir con nuestro objeto muestra2:

Ver código

respuestas <- muestra2%>%
  group_by(Marca.temporal)%>% #agrupamos por fecha
  count() #contamos respuestas por fecha

respuestas

# A tibble: 25 x 2
# Groups:   Marca.temporal [25]
   Marca.temporal     n
   <date>         <int>
 1 2020-03-31         2
 2 2020-04-06       367
 3 2020-04-07       116
 4 2020-04-08        50
 5 2020-04-09        23
 6 2020-04-10        27
 7 2020-04-11         5
 8 2020-04-12         2
 9 2020-04-13         4
10 2020-04-14         3
# ... with 15 more rows
…
